…
```r
# elimination of coprescription 2 suspected betaclam

betalactam1016 %>% filter(Year.ID %in% id.trung1016) %>% View()

id.betalactamse1016=c(  201098,201096,   2010556,  20101100,  20101355,  20101374,  20101399,  20101401,  
                    20101406,  20101438,  20101443,  20101457,  20101492
                   
) %>% as.character() 

betalactam1016 %>% filter(Year.ID %in% id.betalactamse1016)   #  loai do 2 betalactam tren 1 thuoc 
```

```
## # A tibble: 27 x 6
##        ATC            Drug Year.ID                   Group GrPhar  Year
##      <chr>           <chr>   <dbl>                   <chr>  <chr> <chr>
##  1 J01CA01      ampicillin   2e+05 AntibacterialSystematic   J01C  2010
##  2 J01DD01       cefotaxim   2e+05 AntibacterialSystematic   J01D  2010
##  3 J01CG01       sulbactam   2e+05 AntibacterialSystematic   J01C  2010
##  4 J01CA01      ampicillin   2e+05 AntibacterialSystematic   J01C  2010
##  5 J01CG01       sulbactam   2e+05 AntibacterialSystematic   J01C  2010
##  6   J01CR acid clavulanic   2e+06 AntibacterialSystematic   J01C  2010
##  7 J01CA04     amoxicillin   2e+06 AntibacterialSystematic   J01C  2010
##  8   J01CR acid clavulanic   2e+07 AntibacterialSystematic   J01C  2010
##  9 J01CA04     amoxicillin   2e+07 AntibacterialSystematic   J01C  2010
## 10   J01CR acid clavulanic   2e+07 AntibacterialSystematic   J01C  2010
## # ... with 17 more rows
```
…
  	 
  
  
  )%>% left_join(read_excel("Betalactam ATC code update.xlsx") %>% select(Drug,ATC)) %>% 
  mutate(subgroup.betalactam=substr(ATC,1,5))
```



```r
betalactam.nodup.casenoncase.1016 %>% group_by(Drug) %>% tally(sort=T)  %>% unique()
```

```
## # A tibble: 54 x 2
##                           Drug     n
##                          <chr> <int>
##  1                   cefotaxim  3115
##  2                  ceftriaxon  1561
##  3                  ceftazidim  1192
##  4                   cefuroxim   703
##  5                 amoxicillin   701
##  6                 cefoperazon   405
##  7                   cefalexin   371
##  8                  ampicillin   278
##  9 amoxicillin/acid clavulanic   271
## 10        ampicillin/sulbactam   193
## # ... with 44 more rows
```
…
